=====

16.848 offers novas - 40.420000  22.380000  62.800000 ( 63.100509)
16848 offers novas existentes - 40.440000  22.450000  62.890000 ( 63.630534)

7776 offers - 17.220000   5.090000  22.310000 ( 22.613982)

39312 offers - 80.810000 109.620000 190.430000 (191.449454)

81648 offers - 306.440000 501.980000 808.420000 (818.078961)

---

Novo sem thread

81648 offers - 278.280000 460.260000 738.540000 (747.001219)

---
novo com thread no loop de periodo (abre thread por room type)
39312 offers - 7.120000   0.660000   7.780000 (  7.914514)
81648 offers - 8.890000   2.690000  11.580000 ( 11.601859)
139776 offers - 19.340000   7.650000  26.990000 ( 27.032478)
1610784 offers - 445.200000 596.880000 1042.080000 (1051.263246)
1610784 offers - 192.8mb - 400.640000 506.900000 907.540000 (1114.794607)
--

thread para todos os rooms
1610784 - banco de 104.7mb - 469.050000 568.330000 1037.380000 (1045.255213)

---
1x dyno - 121seg

==
Benchmark.measure do
  begin
    ProcessOffersWorker.new.perform_full_query(3, 1, OffersLog.find(3).form_params)
  rescue Exception => e
    puts e
  end
end

Benchmark.measure { ProcessOffersWorker.new.perform_full_query(OffersLog.find(3).id, 1, OffersLog.find(3).form_params) }
Abre thread por room (temp de processamento para criar string)
89 dias, 30 rooms, todos pacotes e horarios
tempo de gerar string:
70.230000  59.840000 130.070000 (131.186355)
69.870000  55.750000 125.620000 (125.956808)
Dividido por dia de checkin e executando no banco
87.010000  19.910000 106.920000 (904.085862)

Query completa
110.120000 109.830000 219.950000 (606.640691)

-------

Produção
84dias, 2 roomtypes, 60 quartos(30 p/ cada roomtype), todos pacotes
95mb - 1443.801s
--
Como instalar postgres

Postgres.app
Copiar para applications
copiar postgres/content para applications
Copiar o path no .batch_profile
2x dyno - 150seg
